{
  "lang":"en",
  "name":"model",
  "version":"0.0.0",
  "spacy_version":">=2.3.0",
  "description":"",
  "author":"",
  "email":"",
  "url":"",
  "license":"",
  "vectors":{
    "width":0,
    "vectors":0,
    "keys":0,
    "name":"spacy_pretrained_vectors"
  },
  "pipeline":[
    "ner"
  ],
  "factories":{
    "ner":"ner"
  },
  "labels":{
    "ner":[
      "agreement_num",
      "buyer",
      "currency",
      "end_date",
      "max_budget",
      "payment_term",
      "resource_count",
      "resource_duration",
      "resource_rate",
      "resource_role",
      "resource_total_cost",
      "resource_unit_of_measure",
      "seller",
      "sow_duration",
      "sow_num",
      "start_date"
    ]
  }
}