{
  "lang":"en",
  "name":"ags_round5",
  "version":"0.0.0",
  "spacy_version":">=2.3.0",
  "description":"",
  "author":"",
  "email":"",
  "url":"",
  "license":"",
  "vectors":{
    "width":0,
    "vectors":0,
    "keys":0,
    "name":"spacy_pretrained_vectors"
  },
  "pipeline":[
    "ner"
  ],
  "factories":{
    "ner":"ner"
  },
  "labels":{
    "ner":[
      "agreement_num",
      "end_date",
      "max_budget",
      "parties",
      "sow_duration",
      "sow_num",
      "start_date"
    ]
  }
}